module github.com/omiguelc/volumectl

go 1.13

require (
	github.com/adrg/xdg v0.0.0-20190319220657-88e5137d2444
	github.com/esiqveland/notify v0.1.2
	github.com/godbus/dbus v5.0.1+incompatible
	github.com/urfave/cli v1.22.1
	golang.org/x/xerrors v0.0.0-20190717185122-a985d3407aa7
)
